# Fdb version 3
["pdflatex"] 1415332465 "homework2.tex" "homework2.pdf" "homework2" 1415332467
  "/usr/local/texlive/2014/texmf-dist/tex/context/base/supp-pdf.mkii" 1337017135 71627 94eb9990bed73c364d7f53f960cc8c5b ""
  "/usr/local/texlive/2014/texmf-dist/tex/generic/ifxetex/ifxetex.sty" 1284331290 1458 43ab4710dc82f3edeabecd0d099626b2 ""
  "/usr/local/texlive/2014/texmf-dist/tex/generic/oberdiek/etexcmds.sty" 1335995445 7612 c47308d923ec19888707b0f1792b326a ""
  "/usr/local/texlive/2014/texmf-dist/tex/generic/oberdiek/ifluatex.sty" 1303254447 7324 11d14f318d865f420e692d4e6c9c18c3 ""
  "/usr/local/texlive/2014/texmf-dist/tex/generic/oberdiek/ifpdf.sty" 1303254447 7140 ece2cc23d9f20e1f53975ac167f42d3e ""
  "/usr/local/texlive/2014/texmf-dist/tex/generic/oberdiek/ifvtex.sty" 1335995445 6797 68c89f65e01894df882dd523d3fc0a8f ""
  "/usr/local/texlive/2014/texmf-dist/tex/generic/oberdiek/infwarerr.sty" 1335995445 8253 3bdedc8409aa5d290a2339be6f09af03 ""
  "/usr/local/texlive/2014/texmf-dist/tex/generic/oberdiek/kvdefinekeys.sty" 1335995445 5152 387d9200f396b498d5fd679ae44ed898 ""
  "/usr/local/texlive/2014/texmf-dist/tex/generic/oberdiek/kvsetkeys.sty" 1335995445 14040 8de9f47fabc4ca3bd69b6d795e32751c ""
  "/usr/local/texlive/2014/texmf-dist/tex/generic/oberdiek/ltxcmds.sty" 1335995445 18425 775b341047ce304520cc7c11ca41392e ""
  "/usr/local/texlive/2014/texmf-dist/tex/generic/oberdiek/pdftexcmds.sty" 1335995445 19987 01cb2f3c1d21e5f05711b7fd50b17f2a ""
  "/usr/local/texlive/2014/texmf-dist/tex/latex/amsmath/amsbsy.sty" 1362954379 2412 2d98314dc5be38f455f8890deeb2d091 ""
  "/usr/local/texlive/2014/texmf-dist/tex/latex/amsmath/amsgen.sty" 1362954379 4357 ad30ad08920902fc9b38caf35a3b0496 ""
  "/usr/local/texlive/2014/texmf-dist/tex/latex/amsmath/amsmath.sty" 1362954379 79178 b2e326c351e876df0e5e23df2e02441b ""
  "/usr/local/texlive/2014/texmf-dist/tex/latex/amsmath/amsopn.sty" 1362954379 4082 502152465aedb8f6a3c4b0b7c0fa8ae5 ""
  "/usr/local/texlive/2014/texmf-dist/tex/latex/amsmath/amstext.sty" 1362954379 2637 846ebe982d3549c7ede7ce135456f54a ""
  "/usr/local/texlive/2014/texmf-dist/tex/latex/base/article.cls" 1399675188 20496 66dd832c447553f6776fbeac03bb0580 ""
  "/usr/local/texlive/2014/texmf-dist/tex/latex/base/size10.clo" 1399675188 8967 546f1b177fd18efd7ad74d77a7bdac64 ""
  "/usr/local/texlive/2014/texmf-dist/tex/latex/caption/caption.sty" 1368312746 65148 c61accbd2b9a5316d9be0887ec48d722 ""
  "/usr/local/texlive/2014/texmf-dist/tex/latex/caption/caption3.sty" 1368312746 62748 b02c0dc118f5f35146d37cec569e83b1 ""
  "/usr/local/texlive/2014/texmf-dist/tex/latex/caption/subcaption.sty" 1360019375 4351 ee16013c18d101f9ecb20e53efde17b4 ""
  "/usr/local/texlive/2014/texmf-dist/tex/latex/geometry/geometry.sty" 1284422013 40502 e003406220954b0716679d7928aedd8a ""
  "/usr/local/texlive/2014/texmf-dist/tex/latex/graphics/graphics.sty" 1254151804 14183 42a8fc761b806986eef292369afc2988 ""
  "/usr/local/texlive/2014/texmf-dist/tex/latex/graphics/graphicx.sty" 1399675188 7911 bf0a64f89bfb668c239ddf6324bf4afb ""
  "/usr/local/texlive/2014/texmf-dist/tex/latex/graphics/keyval.sty" 1399675188 2317 0ace13e225e9d95dd9defe947adc9fbb ""
  "/usr/local/texlive/2014/texmf-dist/tex/latex/graphics/trig.sty" 1156702488 3153 c50e6bd54d2dd3933fc52bcf369bec4a ""
  "/usr/local/texlive/2014/texmf-dist/tex/latex/latexconfig/epstopdf-sys.cfg" 1279039959 678 4792914a8f45be57bb98413425e4c7af ""
  "/usr/local/texlive/2014/texmf-dist/tex/latex/latexconfig/graphics.cfg" 1278958963 3563 d35e897cae3b8c6848f6677b73370b54 ""
  "/usr/local/texlive/2014/texmf-dist/tex/latex/multirow/multirow.sty" 1137110401 7374 f7c1f13fc632dd5c9b220a247d233082 ""
  "/usr/local/texlive/2014/texmf-dist/tex/latex/oberdiek/epstopdf-base.sty" 1303254447 12029 04d7fdf76e0464c23b5aa3a727952d7c ""
  "/usr/local/texlive/2014/texmf-dist/tex/latex/oberdiek/grfext.sty" 1335995445 7075 bd0c34fbf1ae8fd1debd2a554e41b2d5 ""
  "/usr/local/texlive/2014/texmf-dist/tex/latex/oberdiek/kvoptions.sty" 1335995445 22417 c74ff4af6a1aa2b65d1924020edbbe11 ""
  "/usr/local/texlive/2014/texmf-dist/tex/latex/pdftex-def/pdftex.def" 1306616590 55368 3c8a0d99822330f2dfabc0dfb09ce897 ""
  "/usr/local/texlive/2014/texmf-dist/tex/latex/subfig/subfig.sty" 1158586182 21369 9ef165ca6df8815c92e693146a376c92 ""
  "/usr/local/texlive/2014/texmf-dist/tex/latex/tools/array.sty" 1399675188 13073 a6e28ede26c83d406e124b12f368174f ""
  "/usr/local/texlive/2014/texmf-dist/tex/latex/tools/enumerate.sty" 1399675188 3255 42d834dc82171769c16badd22df87021 ""
  "/usr/local/texlive/2014/texmf-dist/tex/latex/tools/tabularx.sty" 1400196978 6922 d73f54a1f22489be96930629013f1304 ""
  "/usr/local/texlive/2014/texmf-dist/tex/latex/wrapfig/wrapfig.sty" 1137111090 26220 3701aebf80ccdef248c0c20dd062fea9 ""
  "1-3-c-margin.pdf" 1415156494 116395 ef28c25d190bc0855e2da099789387e9 ""
  "1-3-nonSep2-1-0_0001-gaussian-REAL.pdf" 1415294933 64504 05b00f9b387128d76b32b3d93be83e42 ""
  "1-3-nonSep2-1-0_1-gaussian-REAL.pdf" 1415294950 66921 8ceb670a63d366a2fb126ea4e81ec48e ""
  "1-3-nonSep2-1-0_5-gaussian-REAL.pdf" 1415294978 66867 cee56442d5865143174e5b6523db92fa ""
  "1-3-nonSep2-1-1-gaussian-REAL.pdf" 1415294985 67784 422be467fb1f8e4b370ef5d7c5600c62 ""
  "1-3-stdev2-0_1-1-gaussian-REAL.pdf" 1415295745 66612 edac32988601b44f76580040519110c2 ""
  "1-3-stdev2-0_1-linear-REAL.pdf" 1415297135 65598 3009c029e9c90572ac79f7b2ef3f9802 ""
  "1-3-stdev2-1-0_001-gaussian-REAL.pdf" 1415295762 65835 f0fa8e070031b02070b3a44cbbabdc46 ""
  "1-3-stdev2-1-linear-REAL.pdf" 1415297143 65475 68870cda4887559be4ed08368f54ed19 ""
  "1-3-stdev4-0_01-1-gaussian-REAL.pdf" 1415296006 75436 1adce90802ef3102a229eb255cfaf959 ""
  "1-3-stdev4-0_01-linear-REAL.pdf" 1415297213 66398 bd1ca46955c0477673bbbbc24e6bb62c ""
  "1-3-support-vectors.pdf" 1415157619 116270 731497ab571996bf7f8cf98687ab1ee6 ""
  "exercise1-1.pdf" 1415133321 12156 7f78d712785e130af9b4e891876294f0 ""
  "exercise2-2.pdf" 1415229403 178069 a2ef99a41b07351100c28c0e1238c681 ""
  "exercise2-3-stdev4-gaussian.pdf" 1415228328 11881 e59dc56ef28ad68d5530aeda49e728ba ""
  "exercise2-3-stdev4-linear.pdf" 1415228623 9987 a0c262319c1f72640e55ca79e24ef477 ""
  "exercise2-4.pdf" 1415230431 177843 4a61cf9be35c7a4d25fb82875d09c0b0 ""
  "homework2.aux" 1415332466 3507 fc9c6cf9f869ff785f8bb067bf3b7d6a ""
  "homework2.tex" 1415332462 27332 07a59e2c5ee00c33339d3b7870108e3b ""
  (generated)
  "homework2.pdf"
  "homework2.log"
  "homework2.aux"
